HarryPotter
…
  temp <- tibble(chapter = seq_along(books[[i]]),
                  text = books[[i]]) %>%
    unnest_tokens(word, text) %>%
    ##tokenize each chapter into words
    mutate(book = titles[i]) %>%
    select(book, everything())
  
  series <- rbind(series, temp)
}

series$book <-factor(series$book, levels = rev(titles))
series

## # A tibble: 1,089,386 x 3
##    book               chapter word   
##    <fct>                <int> <chr>  
##  1 philosophers_stone       1 the    
##  2 philosophers_stone       1 boy    
##  3 philosophers_stone       1 who    
##  4 philosophers_stone       1 lived  
##  5 philosophers_stone       1 mr     
##  6 philosophers_stone       1 and    
##  7 philosophers_stone       1 mrs    
##  8 philosophers_stone       1 dursley
##  9 philosophers_stone       1 of     
## 10 philosophers_stone       1 number 
## #  with 1,089,376 more rows
…
As you can see the words that are most frequent do vary across books, due to the story line and characters.

Next I will explore the sentiment of the words using the SentimentAnalysis library with the function get_sentiments.

series %>%
  anti_join(stop_words) %>%
  inner_join(get_sentiments("bing")) %>%
  count(word, sentiment, sort = TRUE) 

## Joining, by = "word"
## Joining, by = "word"

## # A tibble: 3,278 x 3
##    word    sentiment     n
##    <chr>   <chr>     <int>
##  1 dark    negative   1034
##  2 death   negative    757
##  3 magic   positive    606
##  4 hard    negative    466
##  5 fell    negative    460
##  6 top     positive    434
##  7 fudge   negative    433
##  8 moody   negative    422
##  9 magical positive    380
## 10 dead    negative    378
## #  with 3,268 more rows
…
